CO_Lab_2/Single_Cycle_CPU.vcd
$date
	Mon Aug  6 04:55:10 2018
$end
$version
	Icarus Verilog
$end
$timescale
	1ps
$end
$scope module TestBench $end
$var reg 1 ! Clk $end
$var reg 1 " Start $end
$scope module CPU $end
$var wire 4 # ALUCtrl [3:0] $end
$var wire 1 $ ALUSrc $end
$var wire 32 % ALUSrcMux [31:0] $end
$var wire 4 & ALU_op [3:0] $end
$var wire 32 ' ALU_result [31:0] $end
$var wire 1 ( Branch $end
$var wire 1 ) BranchCheck $end
$var wire 1 * BranchSelect $end
$var wire 2 + BranchType [1:0] $end
$var wire 1 , Jump $end
$var wire 1 - RegDst $end
$var wire 1 . RegWrite $end
$var wire 1 / clk_i $end
$var wire 5 0 instrReg [4:0] $end
$var wire 32 1 instruction [31:0] $end
$var wire 1 2 jal_sel $end
$var wire 1 3 jr_sel $end
$var wire 32 4 jump_address [31:0] $end
$var wire 1 5 memRead $end
$var wire 32 6 memRegMux [31:0] $end
$var wire 2 7 memToReg [1:0] $end
$var wire 1 8 memWrite $end
$var wire 32 9 program_Jump [31:0] $end
$var wire 32 : program_PC [31:0] $end
$var wire 32 ; program_add4 [31:0] $end
$var wire 32 < program_branch [31:0] $end
$var wire 32 = program_final [31:0] $end
$var wire 32 > program_no_jump [31:0] $end
$var wire 32 ? readData1 [31:0] $end
$var wire 32 @ readData2 [31:0] $end
$var wire 32 A readData_DM [31:0] $end
$var wire 1 B rst_i $end
$var wire 32 C signExtend [31:0] $end
$var wire 32 D signExtend_shifted [31:0] $end
$var wire 32 E writeData [31:0] $end
$var wire 5 F writeReg [4:0] $end
$var wire 1 G zero $end
$scope module PC $end
$var wire 1 / clk_i $end
$var wire 32 H pc_in_i [31:0] $end
$var wire 1 B rst_i $end
$var reg 32 I pc_out_o [31:0] $end
$upscope $end
$scope module Adder1 $end
$var wire 32 J src1_i [31:0] $end
$var wire 32 K src2_i [31:0] $end
$var wire 32 L sum_o [31:0] $end
$upscope $end
$scope module IM $end
$var wire 32 M addr_i [31:0] $end
$var wire 32 N instr_o [31:0] $end
$var integer 32 O i [31:0] $end
$upscope $end
$scope module Mux_Write_Reg $end
$var wire 5 P data0_i [4:0] $end
$var wire 5 Q data1_i [4:0] $end
$var wire 5 R data_o [4:0] $end
$var wire 1 - select_i $end
$upscope $end
$scope module Mux_Jal_Reg $end
$var wire 5 S data0_i [4:0] $end
$var wire 5 T data1_i [4:0] $end
$var wire 5 U data_o [4:0] $end
$var wire 1 2 select_i $end
$upscope $end
$scope module Mux_Jal_Data $end
$var wire 32 V data0_i [31:0] $end
$var wire 32 W data1_i [31:0] $end
$var wire 32 X data_o [31:0] $end
$var wire 1 2 select_i $end
$upscope $end
$scope module RF $end
$var wire 5 Y RDaddr_i [4:0] $end
$var wire 32 Z RDdata_i [31:0] $end
$var wire 5 [ RSaddr_i [4:0] $end
$var wire 32 \ RSdata_o [31:0] $end
$var wire 5 ] RTaddr_i [4:0] $end
$var wire 32 ^ RTdata_o [31:0] $end
$var wire 1 . RegWrite_i $end
$var wire 1 / clk_i $end
$var wire 1 B rst_i $end
$upscope $end
$scope module Decoder $end
$var wire 1 $ ALUSrc_o $end
$var wire 4 _ ALU_op_o [3:0] $end
$var wire 2 ` Branch_Type_o [1:0] $end
$var wire 1 ( Branch_o $end
$var wire 1 2 Jal_o $end
$var wire 1 , Jump_o $end
$var wire 1 5 MemRead_o $end
$var wire 2 a MemToReg_o [1:0] $end
$var wire 1 8 MemWrite_o $end
$var wire 1 - RegDst_o $end
$var wire 1 . RegWrite_o $end
$var wire 6 b instr_op_i [5:0] $end
$upscope $end
$scope module AC $end
$var wire 4 c ALUCtrl_o [3:0] $end
$var wire 4 d ALUOp_i [3:0] $end
$var wire 1 3 Jr_o $end
$var wire 6 e funct_i [5:0] $end
$upscope $end
$scope module SE $end
$var wire 16 f data_i [15:0] $end
$var reg 32 g data_o [31:0] $end
$upscope $end
$scope module Mux_ALUSrc $end
$var wire 32 h data0_i [31:0] $end
$var wire 32 i data1_i [31:0] $end
$var wire 32 j data_o [31:0] $end
$var wire 1 $ select_i $end
$upscope $end
$scope module ALU $end
$var wire 4 k ctrl_i [3:0] $end
$var wire 32 l result_o [31:0] $end
$var wire 5 m shamt_i [4:0] $end
$var wire 32 n src1_i [31:0] $end
$var wire 32 o src2_i [31:0] $end
$var wire 1 G zero_o $end
$upscope $end
$scope module BC $end
$var wire 1 * branch_select_o $end
$var wire 2 p branch_type_i [1:0] $end
$var wire 1 q result_i $end
$var wire 1 G zero_i $end
$upscope $end
$scope module Data_Memory $end
$var wire 1 5 MemRead_i $end
$var wire 1 8 MemWrite_i $end
$var wire 32 r addr_i [31:0] $end
$var wire 1 / clk_i $end
$var wire 32 s data_i [31:0] $end
$var reg 32 t data_o [31:0] $end
$var integer 32 u i [31:0] $end
$upscope $end
$scope module MemToReg $end
$var wire 32 v data0_i [31:0] $end
$var wire 32 w data1_i [31:0] $end
$var wire 32 x data2_i [31:0] $end
$var wire 32 y data_o [31:0] $end
$var wire 2 z select_i [1:0] $end
$upscope $end
$scope module Adder2 $end
$var wire 32 { src1_i [31:0] $end
$var wire 32 | src2_i [31:0] $end
$var wire 32 } sum_o [31:0] $end
$upscope $end
$scope module Shifter $end
$var wire 32 ~ data_i [31:0] $end
$var wire 32 !" data_o [31:0] $end
$upscope $end
$scope module Mux_PC_Source $end
$var wire 32 "" data0_i [31:0] $end
$var wire 32 #" data1_i [31:0] $end
$var wire 32 $" data_o [31:0] $end
$var wire 1 ) select_i $end
$upscope $end
$scope module MUX_Jump $end
$var wire 32 %" data0_i [31:0] $end
$var wire 32 &" data1_i [31:0] $end
$var wire 32 '" data_o [31:0] $end
$var wire 1 , select_i $end
$upscope $end
$scope module MUX_Jal $end
$var wire 32 (" data0_i [31:0] $end
$var wire 32 )" data1_i [31:0] $end
$var wire 32 *" data_o [31:0] $end
$var wire 1 3 select_i $end
$upscope $end
$upscope $end
$upscope $end
$enddefinitions $end
#0
$dumpvars
bx *"
bx )"
bx ("
bx '"
bx &"
bx00 %"
bx $"
bx #"
bx ""
bx00 !"
bx ~
bx }
bx00 |
bx {
b0x z
bx y
bx x
bx w
bx v
b10000000 u
bx t
bx s
bx r
xq
bx p
bx o
bx n
bx m
bx l
bx k
bx j
bx i
bx h
bx g
bx f
bx e
bx d
bx c
bx b
b0x a
bx `
bx _
bx ^
bx ]
bx \
bx [
bx Z
bx Y
bx X
bx W
bx V
bx U
b11111 T
bx S
bx R
bx Q
bx P
b100000 O
bx N
bx M
bx L
b100 K
bx J
bx I
bx H
xG
bx F
bx E
bx00 D
bx C
0B
bx A
bx @
bx ?
bx >
bx =
bx <
bx ;
bx :
bx 9
x8
b0x 7
bx 6
x5
bx00 4
x3
x2
bx 1
bx 0
0/
x.
x-
x,
bx +
x*
x)
x(
bx '
bx &
bx %
x$
bx #
0"
0!
$end
#25000
b0 E
b0 X
b0 Z
1*
b0 6
b0 V
b0 y
0q
1G
b0 '
b0 l
b0 r
b0 v
1.
b100 =
b100 H
b100 *"
b10 #
b10 c
b10 k
0)
0$
b100 9
b100 '"
b100 ("
0(
b100 >
b100 $"
b100 &"
b0 %
b0 j
b0 o
b10000000010001000 <
b10000000010001000 }
b10000000010001000 #"
b10000000010000100 D
b10000000010000100 |
b10000000010000100 !"
1,
b1000 F
b1000 U
b1000 Y
b100000000100001 g
b100000000100001 C
b100000000100001 i
b100000000100001 x
b100000000100001 ~
03
b10 &
b10 _
b10 d
b0 7
b0 a
b0 z
b0 +
b0 `
b0 p
02
05
08
1-
b1000 0
b1000 R
b1000 S
b0 m
b100000000100001 f
b100001 e
b0 b
b0 ]
b0 @
b0 ^
b0 h
b0 s
b0 [
b0 ?
b0 \
b0 n
b0 )"
b1000 Q
b0 P
b10000000010000100 4
b10000000010000100 %"
b0 I
b100 ;
b100 L
b100 W
b100 {
b100 ""
b100000000100001 1
b100000000100001 N
b0 :
b0 J
b0 M
1!
1/
#50000
0!
0/
1"
1B
#75000
b1010 E
b1010 X
b1010 Z
b1010 6
b1010 V
b1010 y
b1010 '
b1010 l
b1010 r
b1010 v
0*
0G
b1010 %
b1010 j
b1010 o
1$
b10 #
b10 c
b10 k
b11 &
b11 _
b11 d
b1000 =
b1000 H
b1000 *"
b101000 D
b101000 |
b101000 !"
b1001 F
b1001 U
b1001 Y
b1000 9
b1000 '"
b1000 ("
b1010 g
b1010 C
b1010 i
b1010 x
b1010 ~
0-
b1001 0
b1001 R
b1001 S
b1000 >
b1000 $"
b1000 &"
b1010 f
b1010 e
b1000 b
b1001 ]
b0 Q
b1001 P
b1001000000000000101000 4
b1001000000000000101000 %"
b100 I
b110000 <
b110000 }
b110000 #"
b1000 ;
b1000 L
b1000 W
b1000 {
b1000 ""
b100000000010010000000000001010 1
b100000000010010000000000001010 N
b100 :
b100 J
b100 M
1!
1/
#100000
0!
0/
#125000
b1101 E
b1101 X
b1101 Z
b1101 6
b1101 V
b1101 y
b1101 '
b1101 l
b1101 r
b1101 v
b1100 =
b1100 H
b1100 *"
b1101 %
b1101 j
b1101 o
b110100 D
b110100 |
b110100 !"
b1010 F
b1010 U
b1010 Y
b1100 9
b1100 '"
b1100 ("
b1101 g
b1101 C
b1101 i
b1101 x
b1101 ~
b1010 0
b1010 R
b1010 S
b1100 >
b1100 $"
b1100 &"
b1101 f
b1101 e
b1010 ]
b1010 P
b1010000000000000110100 4
b1010000000000000110100 %"
b1000 I
b1000000 <
b1000000 }
b1000000 #"
b1100 ;
b1100 L
b1100 W
b1100 {
b1100 ""
b100000000010100000000000001101 1
b100000000010100000000000001101 N
b1000 :
b1000 J
b1000 M
b0 @
b0 ^
b0 h
b0 s
1!
1/
#150000
0!
0/
#175000
1*
b1101 #
b1101 c
b1101 k
1G
b1100100 E
b1100100 X
b1100100 Z
0$
b1100100 6
b1100100 V
b1100100 y
b10 &
b10 _
b10 d
b1100100 '
b1100100 l
b1100100 r
b1100100 v
b10000 =
b10000 H
b10000 *"
b1010 %
b1010 j
b1010 o
b10110000001100000 D
b10110000001100000 |
b10110000001100000 !"
b1011 F
b1011 U
b1011 Y
b10000 9
b10000 '"
b10000 ("
b101100000011000 g
b101100000011000 C
b101100000011000 i
b101100000011000 x
b101100000011000 ~
1-
b1011 0
b1011 R
b1011 S
b10000 >
b10000 $"
b10000 &"
b101100000011000 f
b11000 e
b0 b
b1001 ]
b1001 [
b1010 ?
b1010 \
b1010 n
b1010 )"
b1011 Q
b1001 P
b100101001010110000001100000 4
b100101001010110000001100000 %"
b1100 I
b10110000001110000 <
b10110000001110000 }
b10110000001110000 #"
b10000 ;
b10000 L
b10000 W
b10000 {
b10000 ""
b1001010010101100000011000 1
b1001010010101100000011000 N
b1100 :
b1100 J
b1100 M
b1010 @
b1010 ^
b1010 h
b1010 s
1!
1/
#200000
0!
0/
#225000
b1111 #
b1111 c
b1111 k
b0 E
b0 X
b0 Z
b0 6
b0 V
b0 y
b0 '
b0 l
b0 r
b0 v
1$
b1111 &
b1111 _
b1111 d
0*
b1011100 =
b1011100 H
b1011100 *"
b1011100 D
b1011100 |
b1011100 !"
0.
0,
b0 F
b0 U
b0 Y
b1011100 9
b1011100 '"
b1011100 ("
b10111 g
b10111 C
b10111 i
b10111 x
b10111 ~
0-
b10111 %
b10111 j
b10111 o
0G
b0 0
b0 R
b0 S
b10100 >
b10100 $"
b10100 &"
b10111 f
b10111 e
b10 b
b0 ]
b0 @
b0 ^
b0 h
b0 s
b0 [
b0 ?
b0 \
b0 n
b0 )"
b0 Q
b0 P
b1011100 4
b1011100 %"
b10000 I
b1110000 <
b1110000 }
b1110000 #"
b10100 ;
b10100 L
b10100 W
b10100 {
b10100 ""
b1000000000000000000000010111 1
b1000000000000000000000010111 N
b10000 :
b10000 J
b10000 M
1!
1/
#250000
0!
0/
#275000
b11 E
b11 X
b11 Z
b11 6
b11 V
b11 y
b11 '
b11 l
b11 r
b11 v
b11 #
b11 c
b11 k
0$
b10 &
b10 _
b10 d
b1010 %
b1010 j
b1010 o
b10100000010001100 D
b10100000010001100 |
b10100000010001100 !"
1.
1,
b1010 F
b1010 U
b1010 Y
b1100000 =
b1100000 H
b1100000 *"
b101000000100011 g
b101000000100011 C
b101000000100011 i
b101000000100011 x
b101000000100011 ~
1-
b1010 0
b1010 R
b1010 S
b1100000 9
b1100000 '"
b1100000 ("
b1100000 >
b1100000 $"
b1100000 &"
b101000000100011 f
b100011 e
b0 b
b1001 ]
b1010 @
b1010 ^
b1010 h
b1010 s
b1010 [
b1101 ?
b1101 \
b1101 n
b1101 )"
b1010 Q
b1001 P
b101001001010100000010001100 4
b101001001010100000010001100 %"
b1011100 I
b10100000011101100 <
b10100000011101100 }
b10100000011101100 #"
b1100000 ;
b1100000 L
b1100000 W
b1100000 {
b1100000 ""
b1010010010101000000100011 1
b1010010010101000000100011 N
b1011100 :
b1011100 J
b1011100 M
1!
1/
#300000
0!
0/
#325000
b1100111 E
b1100111 X
b1100111 Z
b1100111 6
b1100111 V
b1100111 y
b10 #
b10 c
b10 k
0q
b1100111 '
b1100111 l
b1100111 r
b1100111 v
b1100100 =
b1100100 H
b1100100 *"
b11000000010000100 D
b11000000010000100 |
b11000000010000100 !"
b1100 F
b1100 U
b1100 Y
b1100100 9
b1100100 '"
b1100100 ("
b110000000100001 g
b110000000100001 C
b110000000100001 i
b110000000100001 x
b110000000100001 ~
b11 %
b11 j
b11 o
b1100 0
b1100 R
b1100 S
b1100100 >
b1100100 $"
b1100100 &"
b110000000100001 f
b100001 e
b1010 ]
b11 @
b11 ^
b11 h
b11 s
b1011 [
b1100 Q
b1010 P
b101101010011000000010000100 4
b101101010011000000010000100 %"
b1100000 I
b11000000011101000 <
b11000000011101000 }
b11000000011101000 #"
b1100100 ;
b1100100 L
b1100100 W
b1100100 {
b1100100 ""
b1011010100110000000100001 1
b1011010100110000000100001 N
b1100000 :
b1100000 J
b1100000 M
b1100100 ?
b1100100 \
b1100100 n
b1100100 )"
1!
1/
#350000
0!
0/
#375000
0.
b0 E
b0 X
b0 Z
b0 6
b0 V
b0 y
b110 #
b110 c
b110 k
1(
b100 &
b100 _
b100 d
b0 '
b0 l
b0 r
b0 v
b1101000 =
b1101000 H
b1101000 *"
b11111111111111111111111111111000 D
b11111111111111111111111111111000 |
b11111111111111111111111111111000 !"
b1010 F
b1010 U
b1010 Y
b1101000 9
b1101000 '"
b1101000 ("
b11111111111111111111111111111110 g
b11111111111111111111111111111110 C
b11111111111111111111111111111110 i
b11111111111111111111111111111110 x
b11111111111111111111111111111110 ~
0-
b1010 0
b1010 R
b1010 S
b1101000 >
b1101000 $"
b1101000 &"
b11111 m
b1111111111111110 f
b111110 e
b100 b
b1001 [
b1010 ?
b1010 \
b1010 n
b1010 )"
b11111 Q
b100101010111111111111111000 4
b100101010111111111111111000 %"
b1100100 I
b1100000 <
b1100000 }
b1100000 #"
b1101000 ;
b1101000 L
b1101000 W
b1101000 {
b1101000 ""
b10001001010101111111111111110 1
b10001001010101111111111111110 N
b1100100 :
b1100100 J
b1100100 M
1!
1/
#400000
0!
0/
#425000
b1111 #
b1111 c
b1111 k
b1111 &
b1111 _
b1111 d
1$
0(
0*
b10100 =
b10100 H
b10100 *"
b10100 D
b10100 |
b10100 !"
0,
0G
b0 F
b0 U
b0 Y
b10100 9
b10100 '"
b10100 ("
b101 g
b101 C
b101 i
b101 x
b101 ~
b101 %
b101 j
b101 o
b0 0
b0 R
b0 S
b1101100 >
b1101100 $"
b1101100 &"
b0 m
b101 f
b101 e
b10 b
b0 ]
b0 @
b0 ^
b0 h
b0 s
b0 [
b0 ?
b0 \
b0 n
b0 )"
b0 Q
b0 P
b10100 4
b10100 %"
b1101000 I
b10000000 <
b10000000 }
b10000000 #"
b1101100 ;
b1101100 L
b1101100 W
b1101100 {
b1101100 ""
b1000000000000000000000000101 1
b1000000000000000000000000101 N
b1101000 :
b1101000 J
b1101000 M
1!
1/
#450000
0!
0/
#475000
b1010 E
b1010 X
b1010 Z
b1010 6
b1010 V
b1010 y
b1010 '
b1010 l
b1010 r
b1010 v
b1100 #
b1100 c
b1100 k
b110 &
b110 _
b110 d
b1010 %
b1010 j
b1010 o
b101000 D
b101000 |
b101000 !"
1.
1,
b1000 F
b1000 U
b1000 Y
b11000 =
b11000 H
b11000 *"
b1010 g
b1010 C
b1010 i
b1010 x
b1010 ~
b1000 0
b1000 R
b1000 S
b11000 9
b11000 '"
b11000 ("
b11000 >
b11000 $"
b11000 &"
b1010 f
b1010 e
b1111 b
b1000 ]
b1000 P
b1000000000000000101000 4
b1000000000000000101000 %"
b10100 I
b1000000 <
b1000000 }
b1000000 #"
b11000 ;
b11000 L
b11000 W
b11000 {
b11000 ""
b111100000010000000000000001010 1
b111100000010000000000000001010 N
b10100 :
b10100 J
b10100 M
1!
1/
#500000
0!
0/
#525000
b100 E
b100 X
b100 Z
b100 6
b100 V
b100 y
b100 '
b100 l
b100 r
b100 v
b11100 =
b11100 H
b11100 *"
b100 %
b100 j
b100 o
b10000 D
b10000 |
b10000 !"
b1001 F
b1001 U
b1001 Y
b11100 9
b11100 '"
b11100 ("
b100 g
b100 C
b100 i
b100 x
b100 ~
b1001 0
b1001 R
b1001 S
b11100 >
b11100 $"
b11100 &"
b100 f
b100 e
b1001 ]
b1001 P
b1001000000000000010000 4
b1001000000000000010000 %"
b11000 I
b101100 <
b101100 }
b101100 #"
b11100 ;
b11100 L
b11100 W
b11100 {
b11100 ""
b111100000010010000000000000100 1
b111100000010010000000000000100 N
b11000 :
b11000 J
b11000 M
b1010 @
b1010 ^
b1010 h
b1010 s
1!
1/
#550000
0!
0/
#575000
b1101 #
b1101 c
b1101 k
b101000 E
b101000 X
b101000 Z
b101000 6
b101000 V
b101000 y
b101000 '
b101000 l
b101000 r
b101000 v
0$
b10 &
b10 _
b10 d
b1100 F
b1100 U
b1100 Y
b100000 =
b100000 H
b100000 *"
b100 %
b100 j
b100 o
b11000000001100000 D
b11000000001100000 |
b11000000001100000 !"
b1100 0
b1100 R
b1100 S
b100000 9
b100000 '"
b100000 ("
b110000000011000 g
b110000000011000 C
b110000000011000 i
b110000000011000 x
b110000000011000 ~
1-
b100000 >
b100000 $"
b100000 &"
b110000000011000 f
b11000 e
b0 b
b1000 [
b1010 ?
b1010 \
b1010 n
b1010 )"
b1100 Q
b100001001011000000001100000 4
b100001001011000000001100000 %"
b11100 I
b11000000010000000 <
b11000000010000000 }
b11000000010000000 #"
b100000 ;
b100000 L
b100000 W
b100000 {
b100000 ""
b1000010010110000000011000 1
b1000010010110000000011000 N
b11100 :
b11100 J
b11100 M
b100 @
b100 ^
b100 h
b100 s
1!
1/
#600000
0!
0/
#625000
b1000 E
b1000 X
b1000 Z
b1000 6
b1000 V
b1000 y
b1000 '
b1000 l
b1000 r
b1000 v
b10 #
b10 c
b10 k
1$
0*
b11 &
b11 _
b11 d
b100000 D
b100000 |
b100000 !"
b100100 =
b100100 H
b100100 *"
0G
b1110 F
b1110 U
b1110 Y
b100100 9
b100100 '"
b100100 ("
b1000 g
b1000 C
b1000 i
b1000 x
b1000 ~
03
0-
b1000 %
b1000 j
b1000 o
b1110 0
b1110 R
b1110 S
b100100 >
b100100 $"
b100100 &"
b1000 f
b1000 e
b1000 b
b1110 ]
b0 @
b0 ^
b0 h
b0 s
b0 [
b0 ?
b0 \
b0 n
b0 )"
b0 Q
b1110 P
b1110000000000000100000 4
b1110000000000000100000 %"
b100000 I
b1000100 <
b1000100 }
b1000100 #"
b100100 ;
b100100 L
b100100 W
b100100 {
b100100 ""
b100000000011100000000000001000 1
b100000000011100000000000001000 N
b100000 :
b100000 J
b100000 M
1!
1/
#650000
0!
0/
#675000
b11 #
b11 c
b11 k
b100000 E
b100000 X
b100000 Z
0$
b100000 6
b100000 V
b100000 y
b10 &
b10 _
b10 d
b1000 F
b1000 U
b1000 Y
b100000 '
b100000 l
b100000 r
b100000 v
b101000 =
b101000 H
b101000 *"
b1000 %
b1000 j
b1000 o
b10000000010001100 D
b10000000010001100 |
b10000000010001100 !"
b1000 0
b1000 R
b1000 S
b101000 9
b101000 '"
b101000 ("
b100000000100011 g
b100000000100011 C
b100000000100011 i
b100000000100011 x
b100000000100011 ~
1-
b101000 >
b101000 $"
b101000 &"
b100000000100011 f
b100011 e
b0 b
b1100 [
b101000 ?
b101000 \
b101000 n
b101000 )"
b1000 Q
b110001110010000000010001100 4
b110001110010000000010001100 %"
b100100 I
b10000000010110100 <
b10000000010110100 }
b10000000010110100 #"
b101000 ;
b101000 L
b101000 W
b101000 {
b101000 ""
b1100011100100000000100011 1
b1100011100100000000100011 N
b100100 :
b100100 J
b100100 M
b1000 @
b1000 ^
b1000 h
b1000 s
1!
1/
#700000
0!
0/
#725000
1*
1G
b0 E
b0 X
b0 Z
b0 6
b0 V
b0 y
1$
0q
b1100 #
b1100 c
b1100 k
b0 '
b0 l
b0 r
b0 v
b110 &
b110 _
b110 d
b101100 =
b101100 H
b101100 *"
b0 D
b0 |
b0 !"
b1001 F
b1001 U
b1001 Y
b101100 9
b101100 '"
b101100 ("
b0 g
b0 C
b0 i
b0 x
b0 ~
0-
b0 %
b0 j
b0 o
b1001 0
b1001 R
b1001 S
b101100 >
b101100 $"
b101100 &"
b0 f
b0 e
b1111 b
b1001 ]
b100 @
b100 ^
b100 h
b100 s
b0 [
b0 ?
b0 \
b0 n
b0 )"
b0 Q
b1001 P
b1001000000000000000000 4
b1001000000000000000000 %"
b101000 I
b101100 <
b101100 }
b101100 #"
b101100 ;
b101100 L
b101100 W
b101100 {
b101100 ""
b111100000010010000000000000000 1
b111100000010010000000000000000 N
b101000 :
b101000 J
b101000 M
1!
1/
#750000
0!
0/
#775000
b100100 '
b100100 l
b100100 r
b100100 v
b11 E
b11 X
b11 Z
0*
b110000 =
b110000 H
b110000 *"
b100 %
b100 j
b100 o
b10000 D
b10000 |
b10000 !"
b10 #
b10 c
b10 k
b11 6
b11 V
b11 y
b11 t
b11 A
b11 w
b1010 F
b1010 U
b1010 Y
b110000 9
b110000 '"
b110000 ("
b100 g
b100 C
b100 i
b100 x
b100 ~
b0 &
b0 _
b0 d
b1 7
b1 a
b1 z
15
0G
b1010 0
b1010 R
b1010 S
b110000 >
b110000 $"
b110000 &"
b100 f
b100 e
b100011 b
b1010 ]
b1000 [
b100000 ?
b100000 \
b100000 n
b100000 )"
b1010 P
b100001010000000000000010000 4
b100001010000000000000010000 %"
b101100 I
b1000000 <
b1000000 }
b1000000 #"
b110000 ;
b110000 L
b110000 W
b110000 {
b110000 ""
b10001101000010100000000000000100 1
b10001101000010100000000000000100 N
b101100 :
b101100 J
b101100 M
b11 @
b11 ^
b11 h
b11 s
1!
1/
#800000
0!
0/
#825000
b1 E
b1 X
b1 Z
b1 6
b1 V
b1 y
b1 t
b1 A
b1 w
b100000 '
b100000 l
b100000 r
b100000 v
b110100 =
b110100 H
b110100 *"
b0 %
b0 j
b0 o
b0 D
b0 |
b0 !"
b1011 F
b1011 U
b1011 Y
b110100 9
b110100 '"
b110100 ("
b0 g
b0 C
b0 i
b0 x
b0 ~
b1011 0
b1011 R
b1011 S
b110100 >
b110100 $"
b110100 &"
b0 f
b0 e
b1011 ]
b1100100 @
b1100100 ^
b1100100 h
b1100100 s
b1011 P
b100001011000000000000000000 4
b100001011000000000000000000 %"
b110000 I
b110100 <
b110100 }
b110100 #"
b110100 ;
b110100 L
b110100 W
b110100 {
b110100 ""
b10001101000010110000000000000000 1
b10001101000010110000000000000000 N
b110000 :
b110000 J
b110000 M
1!
1/
#850000
0!
0/
#875000
1)
1*
1q
0.
1(
b11111111111111111111111111111110 E
b11111111111111111111111111111110 X
b11111111111111111111111111111110 Z
b10 +
b10 `
b10 p
0$
b11111111111111111111111111111110 '
b11111111111111111111111111111110 l
b11111111111111111111111111111110 r
b11111111111111111111111111111110 v
b1000100 =
b1000100 H
b1000100 *"
b11 %
b11 j
b11 o
b1100 D
b1100 |
b1100 !"
b11 #
b11 c
b11 k
b11111111111111111111111111111110 6
b11111111111111111111111111111110 V
b11111111111111111111111111111110 y
b1010 F
b1010 U
b1010 Y
b1000100 9
b1000100 '"
b1000100 ("
b11 g
b11 C
b11 i
b11 x
b11 ~
b1011 &
b1011 _
b1011 d
b0 7
b0 a
b0 z
05
b1010 0
b1010 R
b1010 S
b1000100 >
b1000100 $"
b1000100 &"
b11 f
b11 e
b110 b
b1010 ]
b1011 [
b1 ?
b1 \
b1 n
b1 )"
b1010 P
b101101010000000000000001100 4
b101101010000000000000001100 %"
b110100 I
b1000100 <
b1000100 }
b1000100 #"
b111000 ;
b111000 L
b111000 W
b111000 {
b111000 ""
b11001011010100000000000000011 1
b11001011010100000000000000011 N
b110100 :
b110100 J
b110100 M
b11 @
b11 ^
b11 h
b11 s
1!
1/
#900000
0!
0/
#925000
b10 #
b10 c
b10 k
0*
b100 E
b100 X
b100 Z
0q
b100 6
b100 V
b100 y
b11 &
b11 _
b11 d
1.
0)
b100 '
b100 l
b100 r
b100 v
0(
b0 +
b0 `
b0 p
1$
b1001000 =
b1001000 H
b1001000 *"
b10000 D
b10000 |
b10000 !"
0G
b1101 F
b1101 U
b1101 Y
b1001000 9
b1001000 '"
b1001000 ("
b100 g
b100 C
b100 i
b100 x
b100 ~
b100 %
b100 j
b100 o
b1101 0
b1101 R
b1101 S
b1001000 >
b1001000 $"
b1001000 &"
b100 f
b100 e
b1000 b
b1101 ]
b0 @
b0 ^
b0 h
b0 s
b0 [
b0 ?
b0 \
b0 n
b0 )"
b1101 P
b1101000000000000010000 4
b1101000000000000010000 %"
b1000100 I
b1011000 <
b1011000 }
b1011000 #"
b1001000 ;
b1001000 L
b1001000 W
b1001000 {
b1001000 ""
b100000000011010000000000000100 1
b100000000011010000000000000100 N
b1000100 :
b1000100 J
b1000100 M
1!
1/
#950000
0!
0/
#975000
b11 #
b11 c
b11 k
b11100 E
b11100 X
b11100 Z
0$
b11100 6
b11100 V
b11100 y
b10 &
b10 _
b10 d
b1000 F
b1000 U
b1000 Y
b11100 '
b11100 l
b11100 r
b11100 v
b1001100 =
b1001100 H
b1001100 *"
b100 %
b100 j
b100 o
b10000000010001100 D
b10000000010001100 |
b10000000010001100 !"
b1000 0
b1000 R
b1000 S
b1001100 9
b1001100 '"
b1001100 ("
b100000000100011 g
b100000000100011 C
b100000000100011 i
b100000000100011 x
b100000000100011 ~
1-
b1001100 >
b1001100 $"
b1001100 &"
b100000000100011 f
b100011 e
b0 b
b1000 [
b100000 ?
b100000 \
b100000 n
b100000 )"
b1000 Q
b100001101010000000010001100 4
b100001101010000000010001100 %"
b1001000 I
b10000000011011000 <
b10000000011011000 }
b10000000011011000 #"
b1001100 ;
b1001100 L
b1001100 W
b1001100 {
b1001100 ""
b1000011010100000000100011 1
b1000011010100000000100011 N
b1001000 :
b1001000 J
b1001000 M
b100 @
b100 ^
b100 h
b100 s
1!
1/
#1000000
0!
0/
#1025000
b11100 E
b11100 X
b11100 Z
b11100 6
b11100 V
b11100 y
b11 #
b11 c
b11 k
b11 +
b11 `
b11 p
b1101 &
b1101 _
b1101 d
0.
b11100 '
b11100 l
b11100 r
b11100 v
b1010000 =
b1010000 H
b1010000 *"
b100 D
b100 |
b100 !"
1(
b0 F
b0 U
b0 Y
b1010000 9
b1010000 '"
b1010000 ("
b1 g
b1 C
b1 i
b1 x
b1 ~
0-
b0 %
b0 j
b0 o
b0 0
b0 R
b0 S
b1010000 >
b1010000 $"
b1010000 &"
b1 f
b1 e
b1 b
b0 ]
b0 @
b0 ^
b0 h
b0 s
b0 Q
b0 P
b100000000000000000000000100 4
b100000000000000000000000100 %"
b1001100 I
b1010100 <
b1010100 }
b1010100 #"
b1010000 ;
b1010000 L
b1010000 W
b1010000 {
b1010000 ""
b101000000000000000000000001 1
b101000000000000000000000001 N
b1001100 :
b1001100 J
b1001100 M
b11100 ?
b11100 \
b11100 n
b11100 )"
1!
1/
#1050000
0!
0/
#1075000
b1111 #
b1111 c
b1111 k
b1111 &
b1111 _
b1111 d
0q
b0 E
b0 X
b0 Z
b0 6
b0 V
b0 y
b0 +
b0 `
b0 p
b0 '
b0 l
b0 r
b0 v
b1011 %
b1011 j
b1011 o
b101100 =
b101100 H
b101100 *"
b101100 D
b101100 |
b101100 !"
0(
0,
1$
b101100 9
b101100 '"
b101100 ("
b1011 g
b1011 C
b1011 i
b1011 x
b1011 ~
0G
b1010100 >
b1010100 $"
b1010100 &"
b1011 f
b1011 e
b10 b
b0 [
b0 ?
b0 \
b0 n
b0 )"
b101100 4
b101100 %"
b1010000 I
b10000000 <
b10000000 }
b10000000 #"
b1010100 ;
b1010100 L
b1010100 W
b1010100 {
b1010100 ""
b1000000000000000000000001011 1
b1000000000000000000000001011 N
b1010000 :
b1010000 J
b1010000 M
1!
1/
#1100000
0!
0/
